R for Health Data Science
…
#lot's of ML algorithms have randomness, so it's good practice to 
#set the seed at the beginning of your work so it will produce consistent
#results
set.seed(11)

dat = read.csv("data/brfss2013-Connecticut.csv")

#variables under study
vars = c('bphigh4','cvdinfr4','cvdcrhd4','cvdstrk3','asthma3','chcscncr','chcocncr',
         'chccopd1','havarth3','addepev2','chckidny','diabete3','drvisits')

dat %>% tibble %>%
  select(vars)

## # A tibble: 7,710 x 13
##    bphigh4 cvdinfr4 cvdcrhd4 cvdstrk3 asthma3 chcscncr chcocncr chccopd1
##      <int>    <int>    <int>    <int>   <int>    <int>    <int>    <int>
##  1       1        2        2        2       2        2        2        2
##  2       1        2        7        2       2        2        2        2
##  3       1        2        2        2       2        1        2        2
##  4       3        2        2        2       2        2        2        2
##  5       3        2        2        2       2        1        2        2
##  6       3        2        2        2       2        2        2        2
##  7       1        7        2        2       2        2        2        2
##  8       1        2        2        2       2        1        2        2
##  9       3        2        2        2       2        2        2        2
## 10       3        2        2        2       2        2        2        2
## # ... with 7,700 more rows, and 5 more variables: havarth3 <int>,
## #   addepev2 <int>, chckidny <int>, diabete3 <int>, drvisits <int>
…
